2020-10-21 21:07:09,778 - train - INFO - VAE(
  (fc1): Linear(in_features=784, out_features=400, bias=True)
  (fc21): Linear(in_features=400, out_features=20, bias=True)
  (fc22): Linear(in_features=400, out_features=20, bias=True)
  (fc3): Linear(in_features=20, out_features=400, bias=True)
  (fc4): Linear(in_features=400, out_features=784, bias=True)
)
Trainable parameters: 652824
2020-10-21 21:07:09,809 - trainer - WARNING - Warning: There's no GPU available on this machine,training will be performed on CPU.
