2020-10-24 20:55:36,022 - test - INFO - VAE(
  (fc1): Linear(in_features=784, out_features=400, bias=True)
  (fc21): Linear(in_features=400, out_features=20, bias=True)
  (fc22): Linear(in_features=400, out_features=20, bias=True)
  (fc3): Linear(in_features=20, out_features=400, bias=True)
  (fc4): Linear(in_features=400, out_features=784, bias=True)
)
Trainable parameters: 652824
2020-10-24 20:55:36,023 - test - INFO - Loading checkpoint: /Users/jessicaechterhoff/Dropbox/UCSD/Research/Potential_Projects/cluster_learning/cluster_active_learning/saved/models/Mnist_LeNet/1024_203331/checkpoint-epoch10.pth ...
2020-10-24 20:55:38,695 - test - INFO - {'loss': -17647674.5008, 'accuracy': 0.0, 'top_k_acc': 0.0}
